…
  table
  
}


nsduh_table(nsduh_html, table_num = 1, "Table 1")
```

    ## # A tibble: 510 × 5
    ##    State   age   year      percent name   
    ##    <chr>   <chr> <chr>       <dbl> <chr>  
    ##  1 Alabama 12+   2013-2014    9.98 Table 1
    ##  2 Alabama 12+   2014-2015    9.6  Table 1
    ##  3 Alabama 12-17 2013-2014    9.9  Table 1
    ##  4 Alabama 12-17 2014-2015    9.71 Table 1
    ##  5 Alabama 18-25 2013-2014   27.0  Table 1
    ##  6 Alabama 18-25 2014-2015   26.1  Table 1
    ##  7 Alabama 26+   2013-2014    7.1  Table 1
    ##  8 Alabama 26+   2014-2015    6.81 Table 1
    ##  9 Alabama 18+   2013-2014    9.99 Table 1
    ## 10 Alabama 18+   2014-2015    9.59 Table 1
    ## # ℹ 500 more rows

``` r
nsduh_table(nsduh_html, table_num = 2, "Table 2")
```

    ## # A tibble: 510 × 5
    ##    State   age   year      percent name   
    ##    <chr>   <chr> <chr>       <dbl> <chr>  
    ##  1 Alabama 12+   2013-2014    5.57 Table 2
    ##  2 Alabama 12+   2014-2015    5.35 Table 2
    ##  3 Alabama 12-17 2013-2014    4.98 Table 2
    ##  4 Alabama 12-17 2014-2015    5.16 Table 2
    ##  5 Alabama 18-25 2013-2014   15.0  Table 2
    ##  6 Alabama 18-25 2014-2015   14.3  Table 2
    ##  7 Alabama 26+   2013-2014    4.03 Table 2
    ##  8 Alabama 26+   2014-2015    3.86 Table 2
    ##  9 Alabama 18+   2013-2014    5.63 Table 2
    ## 10 Alabama 18+   2014-2015    5.37 Table 2
    ## # ℹ 500 more rows
